[
    {
        "first_name": "Albert",
        "last_name": "Einstein",
        "tax_office": "A Patras",
        "tin": "354987346",
        "phone": "6549879",
        "email": "albert@einstein.com",
        "street_address": "Queens Road 654",
        "postal_code": "68795",
        "city": "Sheffield",
        "country": "Great Britain",
        "notes": "The representative of Genius SA"
    },
    {
        "first_name": "Marie",
        "last_name": "Curie",
        "tax_office": "",
        "tin": "",
        "phone": "684",
        "email": "",
        "street_address": "",
        "postal_code": "",
        "city": "",
        "country": "",
        "notes": ""
    },
    {
        "first_name": "Isaac",
        "last_name": "Newton",
        "tax_office": "A",
        "tin": "987654321",
        "phone": "35493549",
        "email": "i.newton@scientists.com",
        "street_address": "",
        "postal_code": "",
        "city": "",
        "country": "",
        "notes": ""
    }
]